ProjectB - R U Kidding? - Importance of attributes
…
We can see that men and women look for different attributes. Men seem to value attractiveness more than women do. On the other side, women seem to value sincerity and ambition more than men do. Recommendation: This implies that a predictive model should take gender into account, as the importance of attributes differ across genders.

Which attributes actually matter

We will now try and understand which attributes actually mattered in peoples decision. Indeed, individuals can claim they are looking for a specific type of person, while in the end positively rating people with different attributes. In order to visualize this, we will use the attributes rating of peoples partner and their final decision. We will then look at the correlation between each attribute and the decision, on average and then by gender.

## Source: local data frame [441 x 4]
## Groups: pid [441]
## 
##      pid gender  Decision Attractive
##    <int> <fctr>     <dbl>      <dbl>
## 1      1      1 0.5000000   6.700000
## 2      2      1 0.6000000   7.700000
## 3      3      1 0.4444444   6.555556
## 4      4      1 0.6000000   7.000000
## 5      5      1 0.3000000   5.300000
## 6      6      1 0.5000000   6.800000
## 7      7      1 0.7000000   7.900000
## 8      8      1 0.7777778   8.111111
## 9      9      1 0.7000000   7.000000
## 10    10      1 0.3750000   6.375000
## # ... with 431 more rows
…
